{
  "Employee": [
    {
      "id": "deef",
      "name": "Menard Luis Ilao Caponpon",
      "EmployeeID": "B-001",
      "email": "milky@gmail.com",
      "status": "Ongoingggg",
      "address": "San Juan Batangas",
      "description": "Outpreach Program",
      "currentTask": "Outreach"
    },
    {
      "id": "d5d4",
      "name": "Jimboy cadevida",
      "EmployeeID": "B-002",
      "email": "jimboy@gmail.com",
      "status": "Ongoing",
      "address": "San Juan Batangas",
      "description": "Program",
      "currentTask": "Program"
    },
    {
      "id": "dd0f",
      "name": "Menard Luis Ilao Caponpon",
      "EmployeeID": "dd",
      "email": "dcd",
      "status": "dsv",
      "address": "San Juan Batangas",
      "description": "dv",
      "currentTask": "dcd"
    }
  ]
}